{
	"info": {
		"_postman_id": "343c0cec-1ecc-41a4-8bf0-91d4db409785",
		"name": "vseInstrumenti",
		"schema": "https://schema.getpostman.com/json/collection/v2.1.0/collection.json"
	},
	"item": [
		{
			"name": "Generate Products",
			"request": {
				"method": "GET",
				"header": [],
				"body": {
					"mode": "raw",
					"raw": ""
				},
				"url": {
					"raw": "127.0.0.1:8084/api/product/generate?XDEBUG_SESSION_START=PHPSTORM",
					"host": [
						"127",
						"0",
						"0",
						"1"
					],
					"port": "8084",
					"path": [
						"api",
						"product",
						"generate"
					],
					"query": [
						{
							"key": "XDEBUG_SESSION_START",
							"value": "PHPSTORM"
						}
					]
				}
			},
			"response": []
		},
		{
			"name": "Pay Order",
			"request": {
				"method": "POST",
				"header": [
					{
						"key": "Content-Type",
						"name": "Content-Type",
						"type": "text",
						"value": "application/json"
					}
				],
				"body": {
					"mode": "raw",
					"raw": "{\n\t\"orderId\" : 1,\n\t\"sum\" : 12\n}"
				},
				"url": {
					"raw": "127.0.0.1:8084/api/order/pay?XDEBUG_SESSION_START=PHPSTORM",
					"host": [
						"127",
						"0",
						"0",
						"1"
					],
					"port": "8084",
					"path": [
						"api",
						"order",
						"pay"
					],
					"query": [
						{
							"key": "XDEBUG_SESSION_START",
							"value": "PHPSTORM"
						}
					]
				}
			},
			"response": []
		},
		{
			"name": "Create Order",
			"request": {
				"method": "POST",
				"header": [
					{
						"key": "Content-Type",
						"name": "Content-Type",
						"value": "application/json",
						"type": "text"
					}
				],
				"body": {
					"mode": "raw",
					"raw": "{\n    \"products\": {\n        \"1\": 5,\n        \"8\": 1,\n        \"13\": 2\n    }\n}"
				},
				"url": {
					"raw": "127.0.0.1:8084/api/order/create?XDEBUG_SESSION_START=PHPSTORM",
					"host": [
						"127",
						"0",
						"0",
						"1"
					],
					"port": "8084",
					"path": [
						"api",
						"order",
						"create"
					],
					"query": [
						{
							"key": "XDEBUG_SESSION_START",
							"value": "PHPSTORM"
						}
					]
				}
			},
			"response": []
		}
	]
}